twoSorterReg_tb.vcd
$version Generated by VerilatedVcd $end
$timescale 1ps $end
 $scope module twoSorterReg_tb $end
  $var wire 1 U clk $end
  $var wire 1 # rstN $end
  $var wire 4 $ a [3:0] $end
  $var wire 4 % b [3:0] $end
  $var wire 4 K c [3:0] $end
  $var wire 4 L d [3:0] $end
  $var wire 32 & test_count [31:0] $end
  $var wire 32 ' pass_count [31:0] $end
  $var wire 32 ( fail_count [31:0] $end
  $scope module dut $end
   $var wire 1 U clk $end
   $var wire 1 # rstN $end
   $var wire 4 $ a [3:0] $end
   $var wire 4 % b [3:0] $end
   $var wire 4 K c [3:0] $end
   $var wire 4 L d [3:0] $end
   $var wire 1 M net28 $end
   $var wire 1 N net27 $end
   $var wire 1 O net26 $end
   $var wire 1 P net25 $end
   $var wire 1 C net24 $end
   $var wire 1 D net23 $end
   $var wire 1 E net22 $end
   $var wire 1 F net21 $end
   $var wire 4 @ net20 [3:0] $end
   $var wire 4 V net19 [3:0] $end
   $var wire 1 Y net18 $end
   $var wire 1 Z net17 $end
   $var wire 1 [ net16 $end
   $var wire 1 \ net15 $end
   $var wire 1 Q net14 $end
   $var wire 1 R net13 $end
   $var wire 1 S net12 $end
   $var wire 1 T net11 $end
   $var wire 1 8 net10 $end
   $var wire 1 9 net9 $end
   $var wire 1 : net8 $end
   $var wire 1 ; net7 $end
   $var wire 4 5 net6 [3:0] $end
   $var wire 4 W net5 [3:0] $end
   $var wire 1 ] net4 $end
   $var wire 1 ^ net3 $end
   $var wire 1 _ net2 $end
   $var wire 1 ` net1 $end
   $var wire 1 ) net0 $end
   $scope module lut3_9 $end
    $var wire 8 h INIT [7:0] $end
    $var wire 1 8 O $end
    $var wire 1 7 I0 $end
    $var wire 1 - I1 $end
    $var wire 1 . I2 $end
    $var wire 32 i MODULE_NAME [31:0] $end
    $var wire 1 a trig_attr $end
    $var wire 8 h INIT_REG [7:0] $end
   $upscope $end
   $scope module lut3_8 $end
    $var wire 8 h INIT [7:0] $end
    $var wire 1 9 O $end
    $var wire 1 7 I0 $end
    $var wire 1 / I1 $end
    $var wire 1 0 I2 $end
    $var wire 32 i MODULE_NAME [31:0] $end
    $var wire 1 a trig_attr $end
    $var wire 8 h INIT_REG [7:0] $end
   $upscope $end
   $scope module lut3_7 $end
    $var wire 8 h INIT [7:0] $end
    $var wire 1 : O $end
    $var wire 1 7 I0 $end
    $var wire 1 1 I1 $end
    $var wire 1 2 I2 $end
    $var wire 32 i MODULE_NAME [31:0] $end
    $var wire 1 a trig_attr $end
    $var wire 8 h INIT_REG [7:0] $end
   $upscope $end
   $scope module lut3_6 $end
    $var wire 8 h INIT [7:0] $end
    $var wire 1 ; O $end
    $var wire 1 7 I0 $end
    $var wire 1 3 I1 $end
    $var wire 1 4 I2 $end
    $var wire 32 i MODULE_NAME [31:0] $end
    $var wire 1 a trig_attr $end
    $var wire 8 h INIT_REG [7:0] $end
   $upscope $end
   $scope module lut3_22 $end
    $var wire 8 h INIT [7:0] $end
    $var wire 1 C O $end
    $var wire 1 B I0 $end
    $var wire 1 . I1 $end
    $var wire 1 - I2 $end
    $var wire 32 i MODULE_NAME [31:0] $end
    $var wire 1 a trig_attr $end
    $var wire 8 h INIT_REG [7:0] $end
   $upscope $end
   $scope module lut3_21 $end
    $var wire 8 h INIT [7:0] $end
    $var wire 1 D O $end
    $var wire 1 B I0 $end
    $var wire 1 0 I1 $end
    $var wire 1 / I2 $end
    $var wire 32 i MODULE_NAME [31:0] $end
    $var wire 1 a trig_attr $end
    $var wire 8 h INIT_REG [7:0] $end
   $upscope $end
   $scope module lut3_20 $end
    $var wire 8 h INIT [7:0] $end
    $var wire 1 E O $end
    $var wire 1 B I0 $end
    $var wire 1 2 I1 $end
    $var wire 1 1 I2 $end
    $var wire 32 i MODULE_NAME [31:0] $end
    $var wire 1 a trig_attr $end
    $var wire 8 h INIT_REG [7:0] $end
   $upscope $end
   $scope module lut3_19 $end
    $var wire 8 h INIT [7:0] $end
    $var wire 1 F O $end
    $var wire 1 B I0 $end
    $var wire 1 4 I1 $end
    $var wire 1 3 I2 $end
    $var wire 32 i MODULE_NAME [31:0] $end
    $var wire 1 a trig_attr $end
    $var wire 8 h INIT_REG [7:0] $end
   $upscope $end
   $scope module carry4_18 $end
    $var wire 4 @ CO [3:0] $end
    $var wire 4 V O [3:0] $end
    $var wire 1 a CI $end
    $var wire 1 b CYINIT $end
    $var wire 4 c DI [3:0] $end
    $var wire 4 $ S [3:0] $end
    $var wire 48 d MODULE_NAME [47:0] $end
    $var wire 1 a glblGSR $end
    $var wire 1 a CI_in $end
    $var wire 1 b CYINIT_in $end
    $var wire 4 c DI_in [3:0] $end
    $var wire 4 $ S_in [3:0] $end
    $var wire 4 A CO_fb [3:0] $end
   $upscope $end
   $scope module carry4_5 $end
    $var wire 4 5 CO [3:0] $end
    $var wire 4 W O [3:0] $end
    $var wire 1 a CI $end
    $var wire 1 b CYINIT $end
    $var wire 4 f DI [3:0] $end
    $var wire 4 $ S [3:0] $end
    $var wire 48 d MODULE_NAME [47:0] $end
    $var wire 1 a glblGSR $end
    $var wire 1 a CI_in $end
    $var wire 1 b CYINIT_in $end
    $var wire 4 f DI_in [3:0] $end
    $var wire 4 $ S_in [3:0] $end
    $var wire 4 6 CO_fb [3:0] $end
   $upscope $end
   $scope module fdce_10 $end
    $var wire 1 g INIT [0:0] $end
    $var wire 1 g IS_CLR_INVERTED [0:0] $end
    $var wire 1 g IS_C_INVERTED [0:0] $end
    $var wire 1 g IS_D_INVERTED [0:0] $end
    $var wire 1 T Q $end
    $var wire 1 U C $end
    $var wire 1 b CE $end
    $var wire 1 ) CLR $end
    $var wire 1 ; D $end
    $var wire 1 g IS_CLR_INVERTED_REG [0:0] $end
    $var wire 1 g IS_C_INVERTED_REG [0:0] $end
    $var wire 1 g IS_D_INVERTED_REG [0:0] $end
    $var wire 1 X CLR_in $end
    $var wire 1 U C_in $end
    $var wire 1 < D_in $end
   $upscope $end
   $scope module fdce_11 $end
    $var wire 1 g INIT [0:0] $end
    $var wire 1 g IS_CLR_INVERTED [0:0] $end
    $var wire 1 g IS_C_INVERTED [0:0] $end
    $var wire 1 g IS_D_INVERTED [0:0] $end
    $var wire 1 S Q $end
    $var wire 1 U C $end
    $var wire 1 b CE $end
    $var wire 1 ) CLR $end
    $var wire 1 : D $end
    $var wire 1 g IS_CLR_INVERTED_REG [0:0] $end
    $var wire 1 g IS_C_INVERTED_REG [0:0] $end
    $var wire 1 g IS_D_INVERTED_REG [0:0] $end
    $var wire 1 X CLR_in $end
    $var wire 1 U C_in $end
    $var wire 1 = D_in $end
   $upscope $end
   $scope module fdce_12 $end
    $var wire 1 g INIT [0:0] $end
    $var wire 1 g IS_CLR_INVERTED [0:0] $end
    $var wire 1 g IS_C_INVERTED [0:0] $end
    $var wire 1 g IS_D_INVERTED [0:0] $end
    $var wire 1 R Q $end
    $var wire 1 U C $end
    $var wire 1 b CE $end
    $var wire 1 ) CLR $end
    $var wire 1 9 D $end
    $var wire 1 g IS_CLR_INVERTED_REG [0:0] $end
    $var wire 1 g IS_C_INVERTED_REG [0:0] $end
    $var wire 1 g IS_D_INVERTED_REG [0:0] $end
    $var wire 1 X CLR_in $end
    $var wire 1 U C_in $end
    $var wire 1 > D_in $end
   $upscope $end
   $scope module fdce_13 $end
    $var wire 1 g INIT [0:0] $end
    $var wire 1 g IS_CLR_INVERTED [0:0] $end
    $var wire 1 g IS_C_INVERTED [0:0] $end
    $var wire 1 g IS_D_INVERTED [0:0] $end
    $var wire 1 Q Q $end
    $var wire 1 U C $end
    $var wire 1 b CE $end
    $var wire 1 ) CLR $end
    $var wire 1 8 D $end
    $var wire 1 g IS_CLR_INVERTED_REG [0:0] $end
    $var wire 1 g IS_C_INVERTED_REG [0:0] $end
    $var wire 1 g IS_D_INVERTED_REG [0:0] $end
    $var wire 1 X CLR_in $end
    $var wire 1 U C_in $end
    $var wire 1 ? D_in $end
   $upscope $end
   $scope module fdce_23 $end
    $var wire 1 g INIT [0:0] $end
    $var wire 1 g IS_CLR_INVERTED [0:0] $end
    $var wire 1 g IS_C_INVERTED [0:0] $end
    $var wire 1 g IS_D_INVERTED [0:0] $end
    $var wire 1 P Q $end
    $var wire 1 U C $end
    $var wire 1 b CE $end
    $var wire 1 ) CLR $end
    $var wire 1 F D $end
    $var wire 1 g IS_CLR_INVERTED_REG [0:0] $end
    $var wire 1 g IS_C_INVERTED_REG [0:0] $end
    $var wire 1 g IS_D_INVERTED_REG [0:0] $end
    $var wire 1 X CLR_in $end
    $var wire 1 U C_in $end
    $var wire 1 G D_in $end
   $upscope $end
   $scope module fdce_24 $end
    $var wire 1 g INIT [0:0] $end
    $var wire 1 g IS_CLR_INVERTED [0:0] $end
    $var wire 1 g IS_C_INVERTED [0:0] $end
    $var wire 1 g IS_D_INVERTED [0:0] $end
    $var wire 1 O Q $end
    $var wire 1 U C $end
    $var wire 1 b CE $end
    $var wire 1 ) CLR $end
    $var wire 1 E D $end
    $var wire 1 g IS_CLR_INVERTED_REG [0:0] $end
    $var wire 1 g IS_C_INVERTED_REG [0:0] $end
    $var wire 1 g IS_D_INVERTED_REG [0:0] $end
    $var wire 1 X CLR_in $end
    $var wire 1 U C_in $end
    $var wire 1 H D_in $end
   $upscope $end
   $scope module fdce_25 $end
    $var wire 1 g INIT [0:0] $end
    $var wire 1 g IS_CLR_INVERTED [0:0] $end
    $var wire 1 g IS_C_INVERTED [0:0] $end
    $var wire 1 g IS_D_INVERTED [0:0] $end
    $var wire 1 N Q $end
    $var wire 1 U C $end
    $var wire 1 b CE $end
    $var wire 1 ) CLR $end
    $var wire 1 D D $end
    $var wire 1 g IS_CLR_INVERTED_REG [0:0] $end
    $var wire 1 g IS_C_INVERTED_REG [0:0] $end
    $var wire 1 g IS_D_INVERTED_REG [0:0] $end
    $var wire 1 X CLR_in $end
    $var wire 1 U C_in $end
    $var wire 1 I D_in $end
   $upscope $end
   $scope module fdce_26 $end
    $var wire 1 g INIT [0:0] $end
    $var wire 1 g IS_CLR_INVERTED [0:0] $end
    $var wire 1 g IS_C_INVERTED [0:0] $end
    $var wire 1 g IS_D_INVERTED [0:0] $end
    $var wire 1 M Q $end
    $var wire 1 U C $end
    $var wire 1 b CE $end
    $var wire 1 ) CLR $end
    $var wire 1 C D $end
    $var wire 1 g IS_CLR_INVERTED_REG [0:0] $end
    $var wire 1 g IS_C_INVERTED_REG [0:0] $end
    $var wire 1 g IS_D_INVERTED_REG [0:0] $end
    $var wire 1 X CLR_in $end
    $var wire 1 U C_in $end
    $var wire 1 J D_in $end
   $upscope $end
  $upscope $end
  $scope module unnamedblk1 $end
   $var wire 32 * i [31:0] $end
   $scope module unnamedblk2 $end
    $var wire 4 + rand_a [3:0] $end
    $var wire 4 , rand_b [3:0] $end
   $upscope $end
  $upscope $end
 $upscope $end
$enddefinitions $end


#0
1#
b0000 $
b0000 %
b00000000000000000000000000000000 &
b00000000000000000000000000000000 '
b00000000000000000000000000000000 (
0)
b00000000000000000000000000000000 *
b0000 +
b0000 ,
0-
0.
0/
00
01
02
03
04
b0000 5
b0001 6
07
08
09
0:
0;
0<
0=
0>
0?
b0000 @
b0001 A
0B
0C
0D
0E
0F
0G
0H
0I
0J
b0000 K
b0000 L
0M
0N
0O
0P
0Q
0R
0S
0T
0U
b0001 V
b0001 W
0X
0Y
0Z
0[
0\
0]
0^
0_
0`
0a
1b
b0000 c
b010000110100000101010010010100100101100100110100 d
b0000 f
0g
b11100100 h
b01001100010101010101010000110011 i
#5
1U
#10
0U
#15
1U
#20
0U
#25
0#
1)
1U
1X
#30
0U
#35
1U
#40
0U
#45
1#
0)
1U
0X
#50
0U
#55
b00000000000000000000000000000001 &
1U
#60
0U
#65
b0101 $
b0101 %
1/
10
13
14
b0001 5
b0011 6
19
1;
1<
1>
b0001 @
b0011 A
1D
1F
1G
1I
b0101 K
b0101 L
1N
1P
1R
1T
1U
b0110 V
b0110 W
#70
0U
#75
b00000000000000000000000000000010 &
b00000000000000000000000000000001 '
1U
#80
0U
#85
b0011 $
b0111 %
0/
11
12
b0011 5
b0111 6
09
1:
1=
0>
b0011 @
b0111 A
1E
1H
b0011 K
b0111 L
1O
0R
1S
1U
b0100 V
b0100 W
#90
0U
#95
b00000000000000000000000000000011 &
b00000000000000000000000000000010 '
1U
#100
0U
#105
b1010 $
b0010 %
1-
00
03
04
b0000 5
b0001 6
18
0;
0<
1?
b0000 @
b0001 A
0D
0F
0G
0I
b1010 K
b0010 L
0N
0P
1Q
0T
1U
b1011 V
b1011 W
#110
0U
#115
b00000000000000000000000000000100 &
b00000000000000000000000000000001 (
1U
#120
0U
#125
b0000 $
b1111 %
0-
1.
10
01
14
08
0:
0=
0?
1C
1D
1F
1G
1I
1J
b0000 K
b1111 L
1M
1N
1P
0Q
0S
1U
b0001 V
b0001 W
#130
0U
#135
b00000000000000000000000000000101 &
b00000000000000000000000000000011 '
1U
#140
0U
#145
b1111 $
b0000 %
1-
0.
1/
00
11
02
13
04
b1111 5
b1111 6
17
b1111 @
b1111 A
1B
1U
b0000 V
b0000 W
#150
0U
#155
b00000000000000000000000000000110 &
b00000000000000000000000000000100 '
1U
#160
0U
#165
b0111 $
b1000 %
0-
1.
b0111 5
07
19
1:
1;
1<
1=
1>
b0111 @
0B
0D
0E
0F
0G
0H
0I
b0111 K
b1000 L
0N
0O
0P
1R
1S
1T
1U
b1000 V
b1000 W
#170
0U
#175
b00000000000000000000000000000111 &
b00000000000000000000000000000101 '
1U
#180
0U
#185
b1111 $
b1111 %
1-
10
12
14
b1111 5
17
18
1?
b1111 @
1B
1D
1E
1F
1G
1H
1I
b1111 K
b1111 L
1N
1O
1P
1Q
1U
b0000 V
b0000 W
#190
0U
#195
b00000000000000000000000000001000 &
b00000000000000000000000000000110 '
1U
#200
0U
#205
b0000 $
b0000 %
0-
0.
0/
00
01
02
03
04
b0000 5
b0001 6
07
08
09
0:
0;
0<
0=
0>
0?
b0000 @
b0001 A
0B
0C
0D
0E
0F
0G
0H
0I
0J
b0000 K
b0000 L
0M
0N
0O
0P
0Q
0R
0S
0T
1U
b0001 V
b0001 W
#210
0U
#215
b00000000000000000000000000001001 &
b00000000000000000000000000000111 '
1U
#220
0U
#225
b0110 $
b1001 %
1.
1/
11
14
19
1:
1=
1>
1C
1F
1G
1J
b0110 K
b1001 L
1M
1P
1R
1S
1U
b0111 V
b0111 W
#230
0U
#235
b00000000000000000000000000001010 &
b00000000000000000000000000001000 '
1U
#240
0U
#245
b0001 $
b1110 %
0/
10
01
12
13
04
b0001 5
b0011 6
09
0:
1;
1<
0=
0>
b0001 @
b0011 A
1D
1E
0F
0G
1H
1I
b0001 K
b1110 L
1N
1O
0P
0R
0S
1T
1U
b0010 V
b0010 W
#250
0U
#255
b00000000000000000000000000001011 &
b00000000000000000000000000001001 '
b1110 +
b0010 ,
1U
#260
0U
#265
b1110 $
b0010 %
1-
0.
1/
00
11
03
b0000 5
b0001 6
18
19
1:
0;
0<
1=
1>
1?
b0000 @
b0001 A
0C
0D
0I
0J
b1110 K
b0010 L
0M
0N
1Q
1R
1S
0T
1U
b1111 V
b1111 W
#270
0U
#275
b00000000000000000000000000001100 &
b00000000000000000000000000000010 (
b00000000000000000000000000000001 *
b1010 +
b0011 ,
1U
#280
0U
#285
b1010 $
b0011 %
0/
14
09
0>
1F
1G
b1010 K
b0011 L
1P
0R
1U
b1011 V
b1011 W
#290
0U
#295
b00000000000000000000000000001101 &
b00000000000000000000000000000011 (
b00000000000000000000000000000010 *
b1100 +
b1100 ,
1U
#300
0U
#305
b1100 $
b1100 %
1.
1/
10
01
02
04
19
0:
0=
1>
1C
1D
0E
0F
0G
0H
1I
1J
b1100 K
b1100 L
1M
1N
0O
0P
1R
0S
1U
b1101 V
b1101 W
#310
0U
#315
b00000000000000000000000000001110 &
b00000000000000000000000000001010 '
b00000000000000000000000000000011 *
b0110 +
b1000 ,
1U
#320
0U
#325
b0110 $
b1000 %
0-
00
11
08
1:
1=
0?
0D
0I
b0110 K
b1000 L
0N
0Q
1S
1U
b0111 V
b0111 W
#330
0U
#335
b00000000000000000000000000001111 &
b00000000000000000000000000001011 '
b00000000000000000000000000000100 *
b1100 ,
1U
#340
0U
#345
b1100 %
10
1D
1I
b1100 L
1N
1U
#350
0U
#355
b00000000000000000000000000010000 &
b00000000000000000000000000001100 '
b00000000000000000000000000000101 *
b1110 +
b0101 ,
1U
#360
0U
#365
b1110 $
b0101 %
1-
0.
14
18
1?
0C
1F
1G
0J
b1110 K
b0101 L
0M
1P
1Q
1U
b1111 V
b1111 W
#370
0U
#375
b00000000000000000000000000010001 &
b00000000000000000000000000000100 (
b00000000000000000000000000000110 *
b0100 +
b1011 ,
1U
#380
0U
#385
b0100 $
b1011 %
0-
1.
00
01
12
08
0:
0=
0?
1C
0D
1E
1H
0I
1J
b0100 K
b1011 L
1M
0N
1O
0Q
0S
1U
b0101 V
b0101 W
#390
0U
#395
b00000000000000000000000000010010 &
b00000000000000000000000000001101 '
b00000000000000000000000000000111 *
b1011 +
b1001 ,
1U
#400
0U
#405
b1011 $
b1001 %
1-
0/
11
02
13
b0011 5
b0111 6
18
09
1:
1;
1<
1=
0>
1?
b0011 @
b0111 A
0E
0H
b1011 K
b1001 L
0O
1Q
0R
1S
1T
1U
b1100 V
b1100 W
#410
0U
#415
b00000000000000000000000000010011 &
b00000000000000000000000000000101 (
b00000000000000000000000000001000 *
b1000 +
b0110 ,
1U
#420
0U
#425
b1000 $
b0110 %
0.
10
01
12
03
04
b0000 5
b0001 6
0:
0;
0<
0=
b0000 @
b0001 A
0C
1D
1E
0F
0G
1H
1I
0J
b1000 K
b0110 L
0M
1N
1O
0P
0S
0T
1U
b1001 V
b1001 W
#430
0U
#435
b00000000000000000000000000010100 &
b00000000000000000000000000000110 (
b00000000000000000000000000001001 *
b0010 +
b1000 ,
1U
#440
0U
#445
b0010 $
b1000 %
0-
1.
00
11
02
08
1:
1=
0?
1C
0D
0E
0H
0I
1J
b0010 K
b1000 L
1M
0N
0O
0Q
1S
1U
b0011 V
b0011 W
#450
0U
#455
b00000000000000000000000000010101 &
b00000000000000000000000000001110 '
b00000000000000000000000000001010 *
b1100 +
b1011 ,
1U
#460
0U
#465
b1100 $
b1011 %
1-
1/
01
12
14
18
19
0:
0=
1>
1?
1E
1F
1G
1H
b1100 K
b1011 L
1O
1P
1Q
1R
0S
1U
b1101 V
b1101 W
#470
0U
#475
b00000000000000000000000000010110 &
b00000000000000000000000000000111 (
b00000000000000000000000000001011 *
b0101 +
1U
#480
0U
#485
b0101 $
0-
13
b0001 5
b0011 6
08
1;
1<
0?
b0001 @
b0011 A
b0101 K
0Q
1T
1U
b0110 V
b0110 W
#490
0U
#495
b00000000000000000000000000010111 &
b00000000000000000000000000001111 '
b00000000000000000000000000001100 *
b1010 +
b1000 ,
1U
#500
0U
#505
b1010 $
b1000 %
1-
0/
11
02
03
04
b0000 5
b0001 6
18
09
1:
0;
0<
1=
0>
1?
b0000 @
b0001 A
0E
0F
0G
0H
b1010 K
b1000 L
0O
0P
1Q
0R
1S
0T
1U
b1011 V
b1011 W
#510
0U
#515
b00000000000000000000000000011000 &
b00000000000000000000000000001000 (
b00000000000000000000000000001101 *
b0101 +
b0111 ,
1U
#520
0U
#525
b0101 $
b0111 %
0-
0.
1/
10
01
12
13
14
b0001 5
b0011 6
08
19
0:
1;
1<
0=
1>
0?
b0001 @
b0011 A
0C
1D
1E
1F
1G
1H
1I
0J
b0101 K
b0111 L
0M
1N
1O
1P
0Q
1R
0S
1T
1U
b0110 V
b0110 W
#530
0U
#535
b00000000000000000000000000011001 &
b00000000000000000000000000010000 '
b00000000000000000000000000001110 *
b0001 +
b1010 ,
1U
#540
0U
#545
b0001 $
b1010 %
1.
0/
00
04
09
0>
1C
0D
0F
0G
0I
1J
b0001 K
b1010 L
1M
0N
0P
0R
1U
b0010 V
b0010 W
#550
0U
#555
b00000000000000000000000000011010 &
b00000000000000000000000000010001 '
b00000000000000000000000000001111 *
b0000 +
b0110 ,
1U
#560
0U
#565
b0000 $
b0110 %
0.
10
03
b0000 5
b0001 6
0;
0<
b0000 @
b0001 A
0C
1D
1I
0J
b0000 K
b0110 L
0M
1N
0T
1U
b0001 V
b0001 W
#570
0U
#575
b00000000000000000000000000011011 &
b00000000000000000000000000010010 '
b00000000000000000000000000010000 *
b0101 +
b1011 ,
1U
#580
0U
#585
b0101 $
b1011 %
1.
1/
00
13
14
b0001 5
b0011 6
19
1;
1<
1>
b0001 @
b0011 A
1C
0D
1F
1G
0I
1J
b0101 K
b1011 L
1M
0N
1P
1R
1T
1U
b0110 V
b0110 W
#590
0U
#595
b00000000000000000000000000011100 &
b00000000000000000000000000010011 '
b00000000000000000000000000010001 *
b1101 +
b0100 ,
1U
#600
0U
#605
b1101 $
b0100 %
1-
0.
10
02
04
18
1?
0C
1D
0E
0F
0G
0H
1I
0J
b1101 K
b0100 L
0M
1N
0O
0P
1Q
1U
b1110 V
b1110 W
#610
0U
#615
b00000000000000000000000000011101 &
b00000000000000000000000000001001 (
b00000000000000000000000000010010 *
b1001 ,
1U
#620
0U
#625
b1001 %
1.
00
14
1C
0D
1F
1G
0I
1J
b1001 L
1M
0N
1P
1U
#630
0U
#635
b00000000000000000000000000011110 &
b00000000000000000000000000001010 (
b00000000000000000000000000010011 *
b0111 +
b1110 ,
1U
#640
0U
#645
b0111 $
b1110 %
0-
10
11
12
04
b0111 5
b1111 6
08
1:
1=
0?
b0111 @
b1111 A
1D
1E
0F
0G
1H
1I
b0111 K
b1110 L
1N
1O
0P
0Q
1S
1U
b1000 V
b1000 W
#650
0U
#655
b00000000000000000000000000010100 '
b00000000000000000000000000010100 *
1U
#660
0U
#665
b1010 $
b0101 %
1-
0.
0/
02
03
14
b0000 5
b0001 6
18
09
0;
0<
0>
1?
b0000 @
b0001 A
0C
0E
1F
1G
0H
0J
b1010 K
b0101 L
0M
0O
1P
1Q
0R
0T
1U
b1011 V
b1011 W
#670
0U
#675
1U
#680
0U
#685
0#
1)
b0000 K
b0000 L
0N
0P
0Q
0S
1U
1X
#690
0U
#695
1#
0)
b1010 K
b0101 L
1N
1P
1Q
1S
1U
0X
#700
0U
#705
1U
#710
0U
#715
b0111 $
b0011 %
0-
1/
00
12
13
b0111 5
b1111 6
08
19
1;
1<
1>
0?
b0111 @
b1111 A
0D
1E
1H
0I
b0111 K
b0011 L
0N
1O
0Q
1R
1T
1U
b1000 V
b1000 W
#720
0U
#725
b00000000000000000000000000011111 &
b00000000000000000000000000001011 (
1U
#730
0U
#735
b1100 $
b1000 %
1-
1.
01
02
03
04
b0000 5
b0001 6
18
0:
0;
0<
0=
1?
b0000 @
b0001 A
1C
0E
0F
0G
0H
1J
b1100 K
b1000 L
1M
0O
0P
1Q
0S
0T
1U
b1101 V
b1101 W
#740
0U
#745
b0011 $
b1001 %
0-
0/
11
13
14
b0011 5
b0111 6
08
09
1:
1;
1<
1=
0>
0?
b0011 @
b0111 A
1F
1G
b0011 K
b1001 L
1P
0Q
0R
1S
1T
1U
b0100 V
b0100 W
#750
0U
#755
b1111 $
b0000 %
1-
0.
1/
04
b1111 5
b1111 6
17
0:
0;
0<
0=
b1111 @
b1111 A
1B
1D
1E
1H
1I
b0000 K
b1111 L
1N
1O
0S
0T
1U
b0000 V
b0000 W
#760
0U
#765
b0111 $
b0111 %
0-
10
12
14
b0111 5
07
19
1:
1;
1<
1=
1>
b0111 @
0B
0C
0J
b0111 K
b0111 L
0M
1R
1S
1T
1U
b1000 V
b1000 W
#770
0U
#775
1U
#780
0U
#785
b1011 $
b0100 %
1-
0/
02
04
b0011 5
b0111 6
18
09
0>
1?
b0011 @
b0111 A
0E
0F
0G
0H
b1011 K
b0100 L
0O
0P
1Q
0R
1U
b1100 V
b1100 W
#790
0U
#795
1U
#800
0U
#805
0#
b1101 $
b0010 %
1)
1/
00
01
12
b0001 5
b0011 6
19
0:
0=
1>
b0001 @
b0011 A
0D
1E
1H
0I
b0000 K
b0000 L
0N
0Q
0S
0T
1U
b1110 V
b1110 W
1X
#810
0U
#815
1#
0)
b1101 K
b0010 L
1O
1Q
1R
1T
1U
0X
#820
0U
#825
b00000000000000000000000000100000 &
1U
#830
0U
#835
b1000 $
b1100 %
1.
0/
10
02
03
b0000 5
b0001 6
09
0;
0<
0>
b0000 @
b0001 A
1C
1D
0E
0H
1I
1J
b1000 K
b1100 L
1M
1N
0O
0R
0T
1U
b1001 V
b1001 W
#840
0U
#845
b00000000000000000000000000010101 '
1U
